Project 2 - Video Game Analysis
…
Here we see the highest selling game genres globally are Racing, Action & Shooter.

* Racing games are both highly rated and high sellers

game_sales <- video_game %>% group_by(Genre) %>% summarize(Global_Sales = mean(Global_Sales,na.rm=TRUE))
filter(video_game,Genre == 'Action')

## # A tibble: 36 x 15
##     Rank basename Genre ESRB_Rating Platform Publisher Critic_Score User_Score
##    <dbl> <chr>    <chr> <chr>       <chr>    <chr>            <dbl>      <dbl>
##  1    80 grand-t Acti M           PS3      Rockstar         10          9  
##  2   108 grand-t Acti M           XOne     Rockstar          9          9  
##  3   148 unchart Acti T           PS3      Sony Com          9.3        6.3
##  4   152 unchart Acti T           PS3      Sony Com          9.5        9.6
##  5   161 red-dea Acti M           X360     Rockstar          9.5       10  
##  6   177 metal-g Acti M           PS2      Konami             9.5        7  
##  7   181 metal-g Acti M           PS3      Konami             9.3        9.8
##  8   203 assassi Acti M           X360     Ubisoft            8.2        8  
##  9   244 residen Acti M           PS3      Capcom             8.6        8.8
## 10   262 unchart Acti T           PS3      Sony Com          8.7        8.6
## #  with 26 more rows, and 7 more variables: Total_Shipped <dbl>,
## #   Global_Sales <dbl>, NA_Sales <dbl>, PAL_Sales <dbl>, JP_Sales <dbl>,
## #   Other_Sales <dbl>, Year <dbl>
…
